Modelsim/waveform.vcd
$date
	Tue May 13 14:51:33 2025
$end
$version
	ModelSim Version 10.5b
$end
$timescale
	1ps
$end

$scope module tb_vga_timing $end
$var reg 1 ! clk $end
$var reg 1 " reset $end
$var reg 1 # hsync $end
$var reg 1 $ vsync $end
$var reg 1 % active_video $end
$var reg 11 & pixel_x [10:0] $end
$var reg 10 ' pixel_y [9:0] $end

$scope module uut $end
$var parameter 32 ( H_ACTIVE $end
$var parameter 32 ) H_FRONT $end
$var parameter 32 * H_PULSE $end
$var parameter 32 + H_BACK $end
$var parameter 32 , H_TOTAL $end
$var parameter 32 - V_ACTIVE $end
$var parameter 32 . V_FRONT $end
$var parameter 32 / V_PULSE $end
$var parameter 32 0 V_BACK $end
$var parameter 32 1 V_TOTAL $end
$var wire 1 2 clk $end
$var wire 1 3 reset $end
$var reg 1 4 hsync $end
$var reg 1 5 vsync $end
$var reg 11 6 pixel_x [10:0] $end
$var reg 10 7 pixel_y [9:0] $end
$var reg 1 8 active_video $end
$var reg 11 9 h_count [10:0] $end
$var reg 10 : v_count [9:0] $end
$upscope $end
$upscope $end
$enddefinitions $end
#0
$dumpvars
0!
1"
1#
1$
1%
b0 &
b0 '
14
15
b0 6
b0 7
18
b0 9
b0 :
b10000000000 (
b11000 )
b10001000 *
b10100000 +
b10101000000 ,
b1100000000 -
b11 .
b110 /
b11101 0
b1100100110 1
02
13
$end
#5000
1!
12
#10000
0!
02
#15000
1!
12
#20000
0"
0!
03
02
#25000
1!
12
b1 9
b1 6
b1 &
#30000
0!
02
#35000
1!
12
b10 9
b10 6
b10 &
#40000
0!
02
#45000
1!
12
b11 9
b11 6
b11 &
#50000
0!
02
#55000
1!
12
b100 9
b100 6
b100 &
#60000
0!
02
#65000
1!
12
b101 9
b101 6
b101 &
#70000
0!
02
#75000
1!
12
b110 9
b110 6
b110 &
#80000
0!
02
#85000
1!
12
b111 9
b111 6
b111 &
#90000
0!
02
#95000
1!
12
b1000 9
b1000 6
b1000 &
#100000
0!
02
#105000
1!
12
b1001 9
b1001 6
b1001 &
#110000
0!
02
#115000
1!
12
b1010 9
b1010 6
b1010 &
#120000
0!
02
#125000
1!
12
b1011 9
b1011 6
b1011 &
#130000
0!
02
#135000
1!
12
b1100 9
b1100 6
b1100 &
#140000
0!
02
#145000
1!
12
b1101 9
b1101 6
b1101 &
#150000
0!
02
#155000
1!
12
b1110 9
b1110 6
b1110 &
#160000
0!
02
#165000
1!
12
b1111 9
b1111 6
b1111 &
#170000
0!
02
#175000
1!
12
b10000 9
b10000 6
b10000 &
#180000
0!
02
#185000
1!
12
b10001 9
b10001 6
b10001 &
#190000
0!
02
#195000
1!
12
b10010 9
b10010 6
b10010 &
#200000
0!
02
#205000
1!
12
b10011 9
b10011 6
b10011 &
#210000
0!
02
#215000
1!
12
b10100 9
b10100 6
b10100 &
#220000
0!
02
#225000
1!
12
b10101 9
b10101 6
b10101 &
#230000
0!
02
#235000
1!
12
b10110 9
b10110 6
b10110 &
#240000
0!
02
#245000
1!
12
b10111 9
b10111 6
b10111 &
#250000
0!
02
#255000
1!
12
b11000 9
b11000 6
b11000 &
#260000
0!
02
#265000
1!
12
b11001 9
b11001 6
b11001 &
#270000
0!
02
#275000
1!
12
b11010 9
b11010 6
b11010 &
#280000
0!
02
#285000
1!
12
b11011 9
b11011 6
b11011 &
#290000
0!
02
#295000
1!
12
b11100 9
b11100 6
b11100 &
#300000
0!
02
#305000
1!
12
b11101 9
b11101 6
b11101 &
#310000
0!
02
#315000
1!
12
b11110 9
b11110 6
b11110 &
#320000
0!
02
#325000
1!
12
b11111 9
b11111 6
b11111 &
#330000
0!
02
#335000
1!
12
b100000 9
b100000 6
b100000 &
#340000
0!
02
#345000
1!
12
b100001 9
b100001 6
b100001 &
#350000
0!
02
#355000
1!
12
b100010 9
b100010 6
b100010 &
#360000
0!
02
#365000
1!
12
b100011 9
b100011 6
b100011 &
#370000
0!
02
#375000
1!
12
b100100 9
b100100 6
b100100 &
#380000
0!
02
#385000
1!
12
b100101 9
b100101 6
b100101 &
#390000
0!
02
#395000
1!
12
b100110 9
b100110 6
b100110 &
#400000
0!
02
#405000
1!
12
b100111 9
b100111 6
b100111 &
#410000
0!
02
#415000
1!
12
b101000 9
b101000 6
b101000 &
#420000
0!
02
#425000
1!
12
b101001 9
b101001 6
b101001 &
#430000
0!
02
#435000
1!
12
b101010 9
b101010 6
b101010 &
#440000
0!
02
#445000
1!
12
b101011 9
b101011 6
b101011 &
#450000
0!
02
#455000
1!
12
b101100 9
b101100 6
b101100 &
#460000
0!
02
#465000
1!
12
b101101 9
b101101 6
b101101 &
#470000
0!
02
#475000
1!
12
b101110 9
b101110 6
b101110 &
#480000
0!
02
#485000
1!
12
b101111 9
b101111 6
b101111 &
#490000
0!
02
#495000
1!
12
b110000 9
b110000 6
b110000 &
#500000
0!
02
#505000
1!
12
b110001 9
b110001 6
b110001 &
#510000
0!
02
#515000
1!
12
b110010 9
b110010 6
b110010 &
#520000
0!
02
#525000
1!
12
b110011 9
b110011 6
b110011 &
#530000
0!
02
#535000
1!
12
b110100 9
b110100 6
b110100 &
#540000
0!
02
#545000
1!
12
b110101 9
b110101 6
b110101 &
#550000
0!
02
#555000
1!
12
b110110 9
b110110 6
b110110 &
#560000
0!
02
#565000
1!
12
b110111 9
b110111 6
b110111 &
#570000
0!
02
#575000
1!
12
b111000 9
b111000 6
b111000 &
#580000
0!
02
#585000
1!
12
b111001 9
b111001 6
b111001 &
#590000
0!
02
#595000
1!
12
b111010 9
b111010 6
b111010 &
#600000
0!
02
#605000
1!
12
b111011 9
b111011 6
b111011 &
#610000
0!
02
#615000
1!
12
b111100 9
b111100 6
b111100 &
#620000
0!
02
#625000
1!
12
b111101 9
b111101 6
b111101 &
#630000
0!
02
#635000
1!
12
b111110 9
b111110 6
b111110 &
#640000
0!
02
#645000
1!
12
b111111 9
b111111 6
b111111 &
#650000
0!
02
#655000
1!
12
b1000000 9
b1000000 6
b1000000 &
#660000
0!
02
#665000
1!
12
b1000001 9
b1000001 6
b1000001 &
#670000
0!
02
#675000
1!
12
b1000010 9
b1000010 6
b1000010 &
#680000
0!
02
#685000
1!
12
b1000011 9
b1000011 6
b1000011 &
#690000
0!
02
#695000
1!
12
b1000100 9
b1000100 6
b1000100 &
#700000
0!
02
#705000
1!
12
b1000101 9
b1000101 6
b1000101 &
#710000
0!
02
#715000
1!
12
b1000110 9
b1000110 6
b1000110 &
#720000
0!
02
#725000
1!
12
b1000111 9
b1000111 6
b1000111 &
#730000
0!
02
#735000
1!
12
b1001000 9
b1001000 6
b1001000 &
#740000
0!
02
#745000
1!
12
b1001001 9
b1001001 6
b1001001 &
#750000
0!
02
#755000
1!
12
b1001010 9
b1001010 6
b1001010 &
#760000
0!
02
#765000
1!
12
b1001011 9
b1001011 6
b1001011 &
#770000
0!
02
#775000
1!
12
b1001100 9
b1001100 6
b1001100 &
#780000
0!
02
#785000
1!
12
b1001101 9
b1001101 6
b1001101 &
#790000
0!
02
#795000
1!
12
b1001110 9
b1001110 6
b1001110 &
#800000
0!
02
#805000
1!
12
b1001111 9
b1001111 6
b1001111 &
#810000
0!
02
#815000
1!
12
b1010000 9
b1010000 6
b1010000 &
#820000
0!
02
#825000
1!
12
b1010001 9
b1010001 6
b1010001 &
#830000
0!
02
#835000
1!
12
b1010010 9
b1010010 6
b1010010 &
#840000
0!
02
#845000
1!
12
b1010011 9
b1010011 6
b1010011 &
#850000
0!
02
#855000
1!
12
b1010100 9
b1010100 6
b1010100 &
#860000
0!
02
#865000
1!
12
b1010101 9
b1010101 6
b1010101 &
#870000
0!
02
#875000
1!
12
b1010110 9
b1010110 6
b1010110 &
#880000
0!
02
#885000
1!
12
b1010111 9
b1010111 6
b1010111 &
#890000
0!
02
#895000
1!
12
b1011000 9
b1011000 6
b1011000 &
#900000
0!
02
#905000
1!
12
b1011001 9
b1011001 6
b1011001 &
#910000
0!
02
#915000
1!
12
b1011010 9
b1011010 6
b1011010 &
#920000
0!
02
#925000
1!
12
b1011011 9
b1011011 6
b1011011 &
#930000
0!
02
#935000
1!
12
b1011100 9
b1011100 6
b1011100 &
#940000
0!
02
#945000
1!
12
b1011101 9
b1011101 6
b1011101 &
#950000
0!
02
#955000
1!
12
b1011110 9
b1011110 6
b1011110 &
#960000
0!
02
#965000
1!
12
b1011111 9
b1011111 6
b1011111 &
#970000
0!
02
#975000
1!
12
b1100000 9
b1100000 6
b1100000 &
#980000
0!
02
#985000
1!
12
b1100001 9
b1100001 6
b1100001 &
#990000
0!
02
#995000
1!
12
b1100010 9
b1100010 6
b1100010 &
#1000000
0!
02
#1005000
1!
12
b1100011 9
b1100011 6
b1100011 &
#1010000
0!
02
#1015000
1!
12
b1100100 9
b1100100 6
b1100100 &
#1020000
0!
02
#1025000
1!
12
b1100101 9
b1100101 6
b1100101 &
#1030000
0!
02
#1035000
1!
12
b1100110 9
b1100110 6
b1100110 &
#1040000
0!
02
#1045000
1!
12
b1100111 9
b1100111 6
b1100111 &
#1050000
0!
02
#1055000
1!
12
b1101000 9
b1101000 6
b1101000 &
#1060000
0!
02
#1065000
1!
12
b1101001 9
b1101001 6
b1101001 &
#1070000
0!
02
#1075000
1!
12
b1101010 9
b1101010 6
b1101010 &
#1080000
0!
02
#1085000
1!
12
b1101011 9
b1101011 6
b1101011 &
#1090000
0!
02
#1095000
1!
12
b1101100 9
b1101100 6
b1101100 &
#1100000
0!
02
#1105000
1!
12
b1101101 9
b1101101 6
b1101101 &
#1110000
0!
02
#1115000
1!
12
b1101110 9
b1101110 6
b1101110 &
#1120000
0!
02
#1125000
1!
12
b1101111 9
b1101111 6
b1101111 &
#1130000
0!
02
#1135000
1!
12
b1110000 9
b1110000 6
b1110000 &
#1140000
0!
02
#1145000
1!
12
b1110001 9
b1110001 6
b1110001 &
#1150000
0!
02
#1155000
1!
12
b1110010 9
b1110010 6
b1110010 &
#1160000
0!
02
#1165000
1!
12
b1110011 9
b1110011 6
b1110011 &
#1170000
0!
02
#1175000
1!
12
b1110100 9
b1110100 6
b1110100 &
#1180000
0!
02
#1185000
1!
12
b1110101 9
b1110101 6
b1110101 &
#1190000
0!
02
#1195000
1!
12
b1110110 9
b1110110 6
b1110110 &
#1200000
0!
02
#1205000
1!
12
b1110111 9
b1110111 6
b1110111 &
#1210000
0!
02
#1215000
1!
12
b1111000 9
b1111000 6
b1111000 &
#1220000
0!
02
#1225000
1!
12
b1111001 9
b1111001 6
b1111001 &
#1230000
0!
02
#1235000
1!
12
b1111010 9
b1111010 6
b1111010 &
#1240000
0!
02
#1245000
1!
12
b1111011 9
b1111011 6
b1111011 &
#1250000
0!
02
#1255000
1!
12
b1111100 9
b1111100 6
b1111100 &
#1260000
0!
02
#1265000
1!
12
b1111101 9
b1111101 6
b1111101 &
#1270000
0!
02
#1275000
1!
12
b1111110 9
b1111110 6
b1111110 &
#1280000
0!
02
#1285000
1!
12
b1111111 9
b1111111 6
b1111111 &
#1290000
0!
02
#1295000
1!
12
b10000000 9
b10000000 6
b10000000 &
#1300000
0!
02
#1305000
1!
12
b10000001 9
b10000001 6
b10000001 &
#1310000
0!
02
#1315000
1!
12
b10000010 9
b10000010 6
b10000010 &
#1320000
0!
02
#1325000
1!
12
b10000011 9
b10000011 6
b10000011 &
#1330000
0!
02
#1335000
1!
12
b10000100 9
b10000100 6
b10000100 &
#1340000
0!
02
#1345000
1!
12
b10000101 9
b10000101 6
b10000101 &
#1350000
0!
02
#1355000
1!
12
b10000110 9
b10000110 6
b10000110 &
#1360000
0!
02
#1365000
1!
12
b10000111 9
b10000111 6
b10000111 &
#1370000
0!
02
#1375000
1!
12
b10001000 9
b10001000 6
b10001000 &
#1380000
0!
02
#1385000
1!
12
b10001001 9
b10001001 6
b10001001 &
#1390000
0!
02
#1395000
1!
12
b10001010 9
b10001010 6
b10001010 &
#1400000
0!
02
#1405000
1!
12
b10001011 9
b10001011 6
b10001011 &
#1410000
0!
02
#1415000
1!
12
b10001100 9
b10001100 6
b10001100 &
#1420000
0!
02
#1425000
1!
12
b10001101 9
b10001101 6
b10001101 &
#1430000
0!
02
#1435000
1!
12
b10001110 9
b10001110 6
b10001110 &
#1440000
0!
02
#1445000
1!
12
b10001111 9
b10001111 6
b10001111 &
#1450000
0!
02
#1455000
1!
12
b10010000 9
b10010000 6
b10010000 &
#1460000
0!
02
#1465000
1!
12
b10010001 9
b10010001 6
b10010001 &
#1470000
0!
02
#1475000
1!
12
b10010010 9
b10010010 6
b10010010 &
#1480000
0!
02
#1485000
1!
12
b10010011 9
b10010011 6
b10010011 &
#1490000
0!
02
#1495000
1!
12
b10010100 9
b10010100 6
b10010100 &
#1500000
0!
02
#1505000
1!
12
b10010101 9
b10010101 6
b10010101 &
#1510000
0!
02
#1515000
1!
12
b10010110 9
b10010110 6
b10010110 &
#1520000
0!
02
#1525000
1!
12
b10010111 9
b10010111 6
b10010111 &
#1530000
0!
02
#1535000
1!
12
b10011000 9
b10011000 6
b10011000 &
#1540000
0!
02
#1545000
1!
12
b10011001 9
b10011001 6
b10011001 &
#1550000
0!
02
#1555000
1!
12
b10011010 9
b10011010 6
b10011010 &
#1560000
0!
02
#1565000
1!
12
b10011011 9
b10011011 6
b10011011 &
#1570000
0!
02
#1575000
1!
12
b10011100 9
b10011100 6
b10011100 &
#1580000
0!
02
#1585000
1!
12
b10011101 9
b10011101 6
b10011101 &
#1590000
0!
02
#1595000
1!
12
b10011110 9
b10011110 6
b10011110 &
#1600000
0!
02
#1605000
1!
12
b10011111 9
b10011111 6
b10011111 &
#1610000
0!
02
#1615000
1!
12
b10100000 9
b10100000 6
b10100000 &
#1620000
0!
02
#1625000
1!
12
b10100001 9
b10100001 6
b10100001 &
#1630000
0!
02
#1635000
1!
12
b10100010 9
b10100010 6
b10100010 &
#1640000
0!
02
#1645000
1!
12
b10100011 9
b10100011 6
b10100011 &
#1650000
0!
02
#1655000
1!
12
b10100100 9
b10100100 6
b10100100 &
#1660000
0!
02
#1665000
1!
12
b10100101 9
b10100101 6
b10100101 &
#1670000
0!
02
#1675000
1!
12
b10100110 9
b10100110 6
b10100110 &
#1680000
0!
02
#1685000
1!
12
b10100111 9
b10100111 6
b10100111 &
#1690000
0!
02
#1695000
1!
12
b10101000 9
b10101000 6
b10101000 &
#1700000
0!
02
#1705000
1!
12
b10101001 9
b10101001 6
b10101001 &
#1710000
0!
02
#1715000
1!
12
b10101010 9
b10101010 6
b10101010 &
#1720000
0!
02
#1725000
1!
12
b10101011 9
b10101011 6
b10101011 &
#1730000
0!
02
#1735000
1!
12
b10101100 9
b10101100 6
b10101100 &
#1740000
0!
02
#1745000
1!
12
b10101101 9
b10101101 6
b10101101 &
#1750000
0!
02
#1755000
1!
12
b10101110 9
b10101110 6
b10101110 &
#1760000
0!
02
#1765000
1!
12
b10101111 9
b10101111 6
b10101111 &
#1770000
0!
02
#1775000
1!
12
b10110000 9
b10110000 6
b10110000 &
#1780000
0!
02
#1785000
1!
12
b10110001 9
b10110001 6
b10110001 &
#1790000
0!
02
#1795000
1!
12
b10110010 9
b10110010 6
b10110010 &
#1800000
0!
02
#1805000
1!
12
b10110011 9
b10110011 6
b10110011 &
#1810000
0!
02
#1815000
1!
12
b10110100 9
b10110100 6
b10110100 &
#1820000
0!
02
#1825000
1!
12
b10110101 9
b10110101 6
b10110101 &
#1830000
0!
02
#1835000
1!
12
b10110110 9
b10110110 6
b10110110 &
#1840000
0!
02
#1845000
1!
12
b10110111 9
b10110111 6
b10110111 &
#1850000
0!
02
#1855000
1!
12
b10111000 9
b10111000 6
b10111000 &
#1860000
0!
02
#1865000
1!
12
b10111001 9
b10111001 6
b10111001 &
#1870000
0!
02
#1875000
1!
12
b10111010 9
b10111010 6
b10111010 &
#1880000
0!
02
#1885000
1!
12
b10111011 9
b10111011 6
b10111011 &
#1890000
0!
02
#1895000
1!
12
b10111100 9
b10111100 6
b10111100 &
#1900000
0!
02
#1905000
1!
12
b10111101 9
b10111101 6
b10111101 &
#1910000
0!
02
#1915000
1!
12
b10111110 9
b10111110 6
b10111110 &
#1920000
0!
02
#1925000
1!
12
b10111111 9
b10111111 6
b10111111 &
#1930000
0!
02
#1935000
1!
12
b11000000 9
b11000000 6
b11000000 &
#1940000
0!
02
#1945000
1!
12
b11000001 9
b11000001 6
b11000001 &
#1950000
0!
02
#1955000
1!
12
b11000010 9
b11000010 6
b11000010 &
#1960000
0!
02
#1965000
1!
12
b11000011 9
b11000011 6
b11000011 &
#1970000
0!
02
#1975000
1!
12
b11000100 9
b11000100 6
b11000100 &
#1980000
0!
02
#1985000
1!
12
b11000101 9
b11000101 6
b11000101 &
#1990000
0!
02
#1995000
1!
12
b11000110 9
b11000110 6
b11000110 &
#2000000
0!
02
#2005000
1!
12
b11000111 9
b11000111 6
b11000111 &
#2010000
0!
02
#2015000
1!
12
b11001000 9
b11001000 6
b11001000 &
#2020000
0!
02
#2025000
1!
12
b11001001 9
b11001001 6
b11001001 &
#2030000
0!
02
#2035000
1!
12
b11001010 9
b11001010 6
b11001010 &
#2040000
0!
02
#2045000
1!
12
b11001011 9
b11001011 6
b11001011 &
#2050000
0!
02
#2055000
1!
12
b11001100 9
b11001100 6
b11001100 &
#2060000
0!
02
#2065000
1!
12
b11001101 9
b11001101 6
b11001101 &
#2070000
0!
02
#2075000
1!
12
b11001110 9
b11001110 6
b11001110 &
#2080000
0!
02
#2085000
1!
12
b11001111 9
b11001111 6
b11001111 &
#2090000
0!
02
#2095000
1!
12
b11010000 9
b11010000 6
b11010000 &
#2100000
0!
02
#2105000
1!
12
b11010001 9
b11010001 6
b11010001 &
#2110000
0!
02
#2115000
1!
12
b11010010 9
b11010010 6
b11010010 &
#2120000
0!
02
#2125000
1!
12
b11010011 9
b11010011 6
b11010011 &
#2130000
0!
02
#2135000
1!
12
b11010100 9
b11010100 6
b11010100 &
#2140000
0!
02
#2145000
1!
12
b11010101 9
b11010101 6
b11010101 &
#2150000
0!
02
#2155000
1!
12
b11010110 9
b11010110 6
b11010110 &
#2160000
0!
02
#2165000
1!
12
b11010111 9
b11010111 6
b11010111 &
#2170000
0!
02
#2175000
1!
12
b11011000 9
b11011000 6
b11011000 &
#2180000
0!
02
#2185000
1!
12
b11011001 9
b11011001 6
b11011001 &
#2190000
0!
02
#2195000
1!
12
b11011010 9
b11011010 6
b11011010 &
#2200000
0!
02
#2205000
1!
12
b11011011 9
b11011011 6
b11011011 &
#2210000
0!
02
#2215000
1!
12
b11011100 9
b11011100 6
b11011100 &
#2220000
0!
02
#2225000
1!
12
b11011101 9
b11011101 6
b11011101 &
#2230000
0!
02
#2235000
1!
12
b11011110 9
b11011110 6
b11011110 &
#2240000
0!
02
#2245000
1!
12
b11011111 9
b11011111 6
b11011111 &
#2250000
0!
02
#2255000
1!
12
b11100000 9
b11100000 6
b11100000 &
#2260000
0!
02
#2265000
1!
12
b11100001 9
b11100001 6
b11100001 &
#2270000
0!
02
#2275000
1!
12
b11100010 9
b11100010 6
b11100010 &
#2280000
0!
02
#2285000
1!
12
b11100011 9
b11100011 6
b11100011 &
#2290000
0!
02
#2295000
1!
12
b11100100 9
b11100100 6
b11100100 &
#2300000
0!
02
#2305000
1!
12
b11100101 9
b11100101 6
b11100101 &
#2310000
0!
02
#2315000
1!
12
b11100110 9
b11100110 6
b11100110 &
#2320000
0!
02
#2325000
1!
12
b11100111 9
b11100111 6
b11100111 &
#2330000
0!
02
#2335000
1!
12
b11101000 9
b11101000 6
b11101000 &
#2340000
0!
02
#2345000
1!
12
b11101001 9
b11101001 6
b11101001 &
#2350000
0!
02
#2355000
1!
12
b11101010 9
b11101010 6
b11101010 &
#2360000
0!
02
#2365000
1!
12
b11101011 9
b11101011 6
b11101011 &
#2370000
0!
02
#2375000
1!
12
b11101100 9
b11101100 6
b11101100 &
#2380000
0!
02
#2385000
1!
12
b11101101 9
b11101101 6
b11101101 &
#2390000
0!
02
#2395000
1!
12
b11101110 9
b11101110 6
b11101110 &
#2400000
0!
02
#2405000
1!
12
b11101111 9
b11101111 6
b11101111 &
#2410000
0!
02
#2415000
1!
12
b11110000 9
b11110000 6
b11110000 &
#2420000
0!
02
#2425000
1!
12
b11110001 9
b11110001 6
b11110001 &
#2430000
0!
02
#2435000
1!
12
b11110010 9
b11110010 6
b11110010 &
#2440000
0!
02
#2445000
1!
12
b11110011 9
b11110011 6
b11110011 &
#2450000
0!
02
#2455000
1!
12
b11110100 9
b11110100 6
b11110100 &
#2460000
0!
02
#2465000
1!
12
b11110101 9
b11110101 6
b11110101 &
#2470000
0!
02
#2475000
1!
12
b11110110 9
b11110110 6
b11110110 &
#2480000
0!
02
#2485000
1!
12
b11110111 9
b11110111 6
b11110111 &
#2490000
0!
02
#2495000
1!
12
b11111000 9
b11111000 6
b11111000 &
#2500000
0!
02
#2505000
1!
12
b11111001 9
b11111001 6
b11111001 &
#2510000
0!
02
#2515000
1!
12
b11111010 9
b11111010 6
b11111010 &
#2520000
0!
02
#2525000
1!
12
b11111011 9
b11111011 6
b11111011 &
#2530000
0!
02
#2535000
1!
12
b11111100 9
b11111100 6
b11111100 &
#2540000
0!
02
#2545000
1!
12
b11111101 9
b11111101 6
b11111101 &
#2550000
0!
02
#2555000
1!
12
b11111110 9
b11111110 6
b11111110 &
#2560000
0!
02
#2565000
1!
12
b11111111 9
b11111111 6
b11111111 &
#2570000
0!
02
#2575000
1!
12
b100000000 9
b100000000 6
b100000000 &
#2580000
0!
02
#2585000
1!
12
b100000001 9
b100000001 6
b100000001 &
#2590000
0!
02
#2595000
1!
12
b100000010 9
b100000010 6
b100000010 &
#2600000
0!
02
#2605000
1!
12
b100000011 9
b100000011 6
b100000011 &
#2610000
0!
02
#2615000
1!
12
b100000100 9
b100000100 6
b100000100 &
#2620000
0!
02
#2625000
1!
12
b100000101 9
b100000101 6
b100000101 &
#2630000
0!
02
#2635000
1!
12
b100000110 9
b100000110 6
b100000110 &
#2640000
0!
02
#2645000
1!
12
b100000111 9
b100000111 6
b100000111 &
#2650000
0!
02
#2655000
1!
12
b100001000 9
b100001000 6
b100001000 &
#2660000
0!
02
#2665000
1!
12
b100001001 9
b100001001 6
b100001001 &
#2670000
0!
02
#2675000
1!
12
b100001010 9
b100001010 6
b100001010 &
#2680000
0!
02
#2685000
1!
12
b100001011 9
b100001011 6
b100001011 &
#2690000
0!
02
#2695000
1!
12
b100001100 9
b100001100 6
b100001100 &
#2700000
0!
02
#2705000
1!
12
b100001101 9
b100001101 6
b100001101 &
#2710000
0!
02
#2715000
1!
12
b100001110 9
b100001110 6
b100001110 &
#2720000
0!
02
#2725000
1!
12
b100001111 9
b100001111 6
b100001111 &
#2730000
0!
02
#2735000
1!
12
b100010000 9
b100010000 6
b100010000 &
#2740000
0!
02
#2745000
1!
12
b100010001 9
b100010001 6
b100010001 &
#2750000
0!
02
#2755000
1!
12
b100010010 9
b100010010 6
b100010010 &
#2760000
0!
02
#2765000
1!
12
b100010011 9
b100010011 6
b100010011 &
#2770000
0!
02
#2775000
1!
12
b100010100 9
b100010100 6
b100010100 &
#2780000
0!
02
#2785000
1!
12
b100010101 9
b100010101 6
b100010101 &
#2790000
0!
02
#2795000
1!
12
b100010110 9
b100010110 6
b100010110 &
#2800000
0!
02
#2805000
1!
12
b100010111 9
b100010111 6
b100010111 &
#2810000
0!
02
#2815000
1!
12
b100011000 9
b100011000 6
b100011000 &
#2820000
0!
02
#2825000
1!
12
b100011001 9
b100011001 6
b100011001 &
#2830000
0!
02
#2835000
1!
12
b100011010 9
b100011010 6
b100011010 &
#2840000
0!
02
#2845000
1!
12
b100011011 9
b100011011 6
b100011011 &
#2850000
0!
02
#2855000
1!
12
b100011100 9
b100011100 6
b100011100 &
#2860000
0!
02
#2865000
1!
12
b100011101 9
b100011101 6
b100011101 &
#2870000
0!
02
#2875000
1!
12
b100011110 9
b100011110 6
b100011110 &
#2880000
0!
02
#2885000
1!
12
b100011111 9
b100011111 6
b100011111 &
#2890000
0!
02
#2895000
1!
12
b100100000 9
b100100000 6
b100100000 &
#2900000
0!
02
#2905000
1!
12
b100100001 9
b100100001 6
b100100001 &
#2910000
0!
02
#2915000
1!
12
b100100010 9
b100100010 6
b100100010 &
#2920000
0!
02
#2925000
1!
12
b100100011 9
b100100011 6
b100100011 &
#2930000
0!
02
#2935000
1!
12
b100100100 9
b100100100 6
b100100100 &
#2940000
0!
02
#2945000
1!
12
b100100101 9
b100100101 6
b100100101 &
#2950000
0!
02
#2955000
1!
12
b100100110 9
b100100110 6
b100100110 &
#2960000
0!
02
#2965000
1!
12
b100100111 9
b100100111 6
b100100111 &
#2970000
0!
02
#2975000
1!
12
b100101000 9
b100101000 6
b100101000 &
#2980000
0!
02
#2985000
1!
12
b100101001 9
b100101001 6
b100101001 &
#2990000
0!
02
#2995000
1!
12
b100101010 9
b100101010 6
b100101010 &
#3000000
0!
02
#3005000
1!
12
b100101011 9
b100101011 6
b100101011 &
#3010000
0!
02
#3015000
1!
12
b100101100 9
b100101100 6
b100101100 &
#3020000
0!
02
#3025000
1!
12
b100101101 9
b100101101 6
b100101101 &
#3030000
0!
02
#3035000
1!
12
b100101110 9
b100101110 6
b100101110 &
#3040000
0!
02
#3045000
1!
12
b100101111 9
b100101111 6
b100101111 &
#3050000
0!
02
#3055000
1!
12
b100110000 9
b100110000 6
b100110000 &
#3060000
0!
02
#3065000
1!
12
b100110001 9
b100110001 6
b100110001 &
#3070000
0!
02
#3075000
1!
12
b100110010 9
b100110010 6
b100110010 &
#3080000
0!
02
#3085000
1!
12
b100110011 9
b100110011 6
b100110011 &
#3090000
0!
02
#3095000
1!
12
b100110100 9
b100110100 6
b100110100 &
#3100000
0!
02
#3105000
1!
12
b100110101 9
b100110101 6
b100110101 &
#3110000
0!
02
#3115000
1!
12
b100110110 9
b100110110 6
b100110110 &
#3120000
0!
02
#3125000
1!
12
b100110111 9
b100110111 6
b100110111 &
#3130000
0!
02
#3135000
1!
12
b100111000 9
b100111000 6
b100111000 &
#3140000
0!
02
#3145000
1!
12
b100111001 9
b100111001 6
b100111001 &
#3150000
0!
02
#3155000
1!
12
b100111010 9
b100111010 6
b100111010 &
#3160000
0!
02
#3165000
1!
12
b100111011 9
b100111011 6
b100111011 &
#3170000
0!
02
#3175000
1!
12
b100111100 9
b100111100 6
b100111100 &
#3180000
0!
02
#3185000
1!
12
b100111101 9
b100111101 6
b100111101 &
#3190000
0!
02
#3195000
1!
12
b100111110 9
b100111110 6
b100111110 &
#3200000
0!
02
#3205000
1!
12
b100111111 9
b100111111 6
b100111111 &
#3210000
0!
02
#3215000
1!
12
b101000000 9
b101000000 6
b101000000 &
#3220000
0!
02
#3225000
1!
12
b101000001 9
b101000001 6
b101000001 &
#3230000
0!
02
#3235000
1!
12
b101000010 9
b101000010 6
b101000010 &
#3240000
0!
02
#3245000
1!
12
b101000011 9
b101000011 6
b101000011 &
#3250000
0!
02
#3255000
1!
12
b101000100 9
b101000100 6
b101000100 &
#3260000
0!
02
#3265000
1!
12
b101000101 9
b101000101 6
b101000101 &
#3270000
0!
02
#3275000
1!
12
b101000110 9
b101000110 6
b101000110 &
#3280000
0!
02
#3285000
1!
12
b101000111 9
b101000111 6
b101000111 &
#3290000
0!
02
#3295000
1!
12
b101001000 9
b101001000 6
b101001000 &
#3300000
0!
02
#3305000
1!
12
b101001001 9
b101001001 6
b101001001 &
#3310000
0!
02
#3315000
1!
12
b101001010 9
b101001010 6
b101001010 &
#3320000
0!
02
#3325000
1!
12
b101001011 9
b101001011 6
b101001011 &
#3330000
0!
02
#3335000
1!
12
b101001100 9
b101001100 6
b101001100 &
#3340000
0!
02
#3345000
1!
12
b101001101 9
b101001101 6
b101001101 &
#3350000
0!
02
#3355000
1!
12
b101001110 9
b101001110 6
b101001110 &
#3360000
0!
02
#3365000
1!
12
b101001111 9
b101001111 6
b101001111 &
#3370000
0!
02
#3375000
1!
12
b101010000 9
b101010000 6
b101010000 &
#3380000
0!
02
#3385000
1!
12
b101010001 9
b101010001 6
b101010001 &
#3390000
0!
02
#3395000
1!
12
b101010010 9
b101010010 6
b101010010 &
#3400000
0!
02
#3405000
1!
12
b101010011 9
b101010011 6
b101010011 &
#3410000
0!
02
#3415000
1!
12
b101010100 9
b101010100 6
b101010100 &
#3420000
0!
02
#3425000
1!
12
b101010101 9
b101010101 6
b101010101 &
#3430000
0!
02
#3435000
1!
12
b101010110 9
b101010110 6
b101010110 &
#3440000
0!
02
#3445000
1!
12
b101010111 9
b101010111 6
b101010111 &
#3450000
0!
02
#3455000
1!
12
b101011000 9
b101011000 6
b101011000 &
#3460000
0!
02
#3465000
1!
12
b101011001 9
b101011001 6
b101011001 &
#3470000
0!
02
#3475000
1!
12
b101011010 9
b101011010 6
b101011010 &
#3480000
0!
02
#3485000
1!
12
b101011011 9
b101011011 6
b101011011 &
#3490000
0!
02
#3495000
1!
12
b101011100 9
b101011100 6
b101011100 &
#3500000
0!
02
#3505000
1!
12
b101011101 9
b101011101 6
b101011101 &
#3510000
0!
02
#3515000
1!
12
b101011110 9
b101011110 6
b101011110 &
#3520000
0!
02
#3525000
1!
12
b101011111 9
b101011111 6
b101011111 &
#3530000
0!
02
#3535000
1!
12
b101100000 9
b101100000 6
b101100000 &
#3540000
0!
02
#3545000
1!
12
b101100001 9
b101100001 6
b101100001 &
#3550000
0!
02
#3555000
1!
12
b101100010 9
b101100010 6
b101100010 &
#3560000
0!
02
#3565000
1!
12
b101100011 9
b101100011 6
b101100011 &
#3570000
0!
02
#3575000
1!
12
b101100100 9
b101100100 6
b101100100 &
#3580000
0!
02
#3585000
1!
12
b101100101 9
b101100101 6
b101100101 &
#3590000
0!
02
